Dependencies

botofclubs-0.3.1
	pircbotx-2.1
		commons-lang3-3.4
		guava-19.0
		commons-codec-1.10
		slf4j-api-1.7.21
		slf4j-simple-1.7.21
	gson-2.6.2
	chatter-bot-api-1.3.3
	unirest-java-1.4.9
		httpasyncclient-4.0-beta4
		httpclient-4.4-beta1
		httpmime-4.0-alpha4
		json-20160212
		httpcore-4.4.4
		httpcore-nio-4.4.4
		commons-logging-1.2
		apache-mime4j